…
    ## # A tibble: 59 x 16
    ##    logGDP TariffRate logpop GDPGrowth TaxBurdenCent cat_inflation
    ##     <dbl>      <dbl>  <dbl>     <dbl>         <dbl> <fct>        
    ##  1   6.45        8.8  3.73        2            2.31 High         
    ##  2   2.45       18.6 -0.916       1.3         -5.89 Healthy      
    ##  3   4.25        3.1  0.405       3.2        -16.6  Healthy      
    ##  4   6.53       10.7  5.09        7.1        -13.4  High         
    ##  5   1.65       14.2 -1.20        0.9         11.5  High         
    ##  6   5.19        1.8  2.25        2.4          1.61 Dangerously …
    ##  7   3.66        0.6  0.788       2.2          2.71 High         
    ##  8   3.51        0.5 -0.916       0.5          2.01 Low          
    ##  9   4.16        9.8  2.77        6.9         -7.19 Healthy      
    ## 10   4.49       15.8  3.19        3.2         -6.59 Low          
    ## # … with 49 more rows, and 10 more variables: GovInterference <fct>,
    ## #   Region <chr>, .fitted <dbl>, .se.fit <dbl>, .resid <dbl>, .hat <dbl>,
    ## #   .sigma <dbl>, .cooksd <dbl>, .std.resid <dbl>, obs_num <int>

    ## # A tibble: 59 x 2
    ##    obs_num  .cooksd
    ##      <int>    <dbl>
    ##  1       3 0.000346
    ##  2      10 0.0498  
    ##  3      11 0.00381 
    ##  4      12 0.00377 
    ##  5      13 0.000301
    ##  6      14 0.0122  
    ##  7      21 0.0218  
    ##  8      23 0.00132 
    ##  9      28 0.00498 
    ## 10      29 0.000855
    ## # … with 49 more rows
…
    ## # A tibble: 59 x 16
    ##    logGDP TariffRate logpop GDPGrowth TaxBurdenCent cat_inflation
    ##     <dbl>      <dbl>  <dbl>     <dbl>         <dbl> <fct>        
    ##  1   6.45        8.8  3.73        2            2.31 High         
    ##  2   2.45       18.6 -0.916       1.3         -5.89 Healthy      
    ##  3   4.25        3.1  0.405       3.2        -16.6  Healthy      
    ##  4   6.53       10.7  5.09        7.1        -13.4  High         
    ##  5   1.65       14.2 -1.20        0.9         11.5  High         
    ##  6   5.19        1.8  2.25        2.4          1.61 Dangerously …
    ##  7   3.66        0.6  0.788       2.2          2.71 High         
    ##  8   3.51        0.5 -0.916       0.5          2.01 Low          
    ##  9   4.16        9.8  2.77        6.9         -7.19 Healthy      
    ## 10   4.49       15.8  3.19        3.2         -6.59 Low          
    ## # … with 49 more rows, and 10 more variables: GovInterference <fct>,
    ## #   Region <chr>, .fitted <dbl>, .se.fit <dbl>, .resid <dbl>, .hat <dbl>,
    ## #   .sigma <dbl>, .cooksd <dbl>, .std.resid <dbl>, obs_num <int>

    ## # A tibble: 59 x 2
    ##    obs_num  .cooksd
    ##      <int>    <dbl>
    ##  1       3 0.000346
    ##  2      10 0.0498  
    ##  3      11 0.00381 
    ##  4      12 0.00377 
    ##  5      13 0.000301
    ##  6      14 0.0122  
    ##  7      21 0.0218  
    ##  8      23 0.00132 
    ##  9      28 0.00498 
    ## 10      29 0.000855
    ## # … with 49 more rows
…
