…
    ## [1] 59

    ## # A tibble: 59 x 2
    ##    obs_num  .cooksd
    ##      <int>    <dbl>
    ##  1       3 0.000346
    ##  2      10 0.0498  
    ##  3      11 0.00381 
    ##  4      12 0.00377 
    ##  5      13 0.000301
    ##  6      14 0.0122  
    ##  7      21 0.0218  
    ##  8      23 0.00132 
    ##  9      28 0.00498 
    ## 10      29 0.000855
    ## # … with 49 more rows
…
